{
	"node":[
		{	
            "id" : 1,
			"x": 8800,
			"y": 4800,
			"color": "black",
			"fillcolor": "#9166BC",
			"rectangle":  [
				{
					"type" : 1,
					"x": 0,
					"y": 0,
					"zoomStart": 0,
					"zoomEnd": 10000,
					"width": 100,
					"height": 50,
					"contains" : 
						{
							"text":  [
                              {
									"type" : 3,
									"x": 0,
									"y": 0,
									"zoomStart": 0,
									"zoomEnd": 10000,
									"text": "User"
                              }
                            ]
						}						
				}
			]
					
		},
		{	
            "id" : 2,
			"x": 9100,
			"y": 4800,
			"color": "black",
			"fillcolor": "#A3C2FF",
			"ellipse":  [
				{
					"type" : 2,
					"x": 0,
					"y": 0,
					"zoomStart": 0,
					"zoomEnd": 2,
					"width": 105,
					"height": 105,
					"contains" : 
						{
							"text":  [
							{
								"type" : 3,
								"x": 0,
								"y": 0,
								"zoomStart": 0,
								"zoomEnd": 2,
								"text": "Washing Machine System"
							}
							],
							"node":[
							{	
								"id" : 3,
								"x": 30,
								"y": 30,
								"color": "white",
								"fillcolor": "#CC9900",
								"ellipse":  [	
									{
										"type" : 2,
										"x": 0,
										"y": 0,
										"zoomStart": 0.2,
										"zoomEnd": 2,
										"width": 105,
										"height": 105,
										"contains" : 
											{
												"text":  [
												  {
														"type" : 3,
														"x": 0,
														"y": 0,
														"zoomStart": 0.2,
														"zoomEnd": 1,
														"text": "Wash"
												  }
												]
											}						
									},
									{
										"type" : 2,
										"x": 0,
										"y": 0,
										"zoomStart": 1,
										"zoomEnd": 100,
										"width": 105,
										"height": 105,
										"contains" : 
											{
												"text":  [
												  {
														"type" : 3,
														"x": 0,
														"y": 0,
														"zoomStart": 1,
														"zoomEnd": 100,
														"text": "Wash Detail",
														"align": "left"
												  }
												]
											}						
									}
								]	
							},
							{	
								"id" : 4,
								"x": 70,
								"y": 45,
								"color": "white",
								"fillcolor": "white",
								"twinLines":  [
									{
										"type" : 4,
										"x": 0,
										"y": 0,
										"xe": 500,
										"ye": 0,
										"x2": 0,
										"y2": 200,
										"x2e": 500,
										"y2e": 200,
										"zoomStart": 0.1,
										"zoomEnd": 100,
										"contains" : 
											{
												"text":  [
												  {
														"type" : 3,
														"x": 0,
														"y": 0,
														"zoomStart": 0.1,
														"zoomEnd": 100,
														"text": "Program DB"
												  }
												]
											}						
									}
								]	
							},
							{	
								"id" : 5,
								"x": 30,
								"y": 70,
								"color": "white",
								"fillcolor": "#CC9900",
								"ellipse":  [	
									{
										"type" : 2,
										"x": 0,
										"y": 0,
										"zoomStart": 0.2,
										"zoomEnd": 2,
										"width": 105,
										"height": 105,
										"contains" : 
											{
												"text":  [
												  {
														"type" : 3,
														"x": 0,
														"y": 0,
														"zoomStart": 0.2,
														"zoomEnd": 1,
														"text": "Program"
												  }
												]
											}						
									},
									{
										"type" : 2,
										"x": 0,
										"y": 0,
										"zoomStart": 1,
										"zoomEnd": 100,
										"width": 105,
										"height": 105,
										"contains" : 
											{
												"text":  [
												  {
														"type" : 3,
														"x": 0,
														"y": 0,
														"zoomStart": 1,
														"zoomEnd": 100,
														"text": "Program Detail",
														"align": "left"
												  }
												]
											}						
									}
								]	
							}
							]
						}	
				},
				{
					"type" : 2,
					"x": 0,
					"y": 0,
					"zoomStart": 2,
					"zoomEnd": 100000,
					"width": 105,
					"height": 105,
					"contains" : 
						{

						}						
				}
			]	
		}
	],
	"edge":[
		{
			"nodeId1" : 1,
			"nodeId2" : 3,
			"direction": 2,
			"message1": "endNotification",
			"message2": "",
			"posmsg1": 1,
			"posmsg2": 0.7,
			"msgcolor": "black",
			"arrowcolor":"black"
		},
		{
			"nodeId1" : 1,
			"nodeId2" : 5,
			"direction": 1,
			"message1": "program",
			"message2": "",
			"posmsg1": 1,
			"posmsg2": 0,
			"msgcolor": "black",
			"arrowcolor":"black"
		},
		{
			"nodeId1" : 3,
			"nodeId2" : 4,
			"direction": 2,
			"message1": "programAction",
			"message2": "",
			"posmsg1": 1,
			"posmsg2": 1,
			"msgcolor": "black",
			"arrowcolor":"black"
		},
		{
			"nodeId1" : 4,
			"nodeId2" : 5,
			"direction": 2,
			"message1": "programAction",
			"message2": "",
			"posmsg1": 1,
			"posmsg2": 1,
			"msgcolor": "black",
			"arrowcolor":"black"
		}
	]
}