{
	"node":[
		{	
            "id" : 1,
			"x": 8800,
			"y": 4700,
			"color": "black",
			"fillcolor": "black",
			"ellipse":  [
				{
					"type" : 2,
					"x": 0,
					"y": 0,
					"zoomStart": 0,
					"zoomEnd": 1000,
					"width": 40,
					"height": 40,
					"contains" : 
						{
							
						}	
				}
			]	
		},
		{	
            "id" : 2,
			"x": 8500,
			"y": 4900,
			"color": "white",
			"fillcolor" :"#7094B8",
			"rectangle":  [
				{
					"type" : 1,
					"x": 0,
					"y": 0,
					"zoomStart": 0,
					"zoomEnd": 2.0,
					"radius": 20,
					"curveTopLeft" : 1,
					"curveTopRight" : 1,
					"curveBottomLeft" : 1,
					"curveBottomRight" : 1,
					"width": 450,
					"height": 360,
					"contains" : 
						{
							"text":  [
                              {
									"type" : 3,
									"x": 0,
									"y": 0,
									"zoomStart": 0,
									"zoomEnd": 2,
									"text": "working"
                              }
                            ]
						}						
				},
				{
					"type" : 1,
					"x": 0,
					"y": 0,
					"zoomStart": 2.0,
					"zoomEnd": 100000,
					"radius": 20,
					"curveTopLeft" : 1,
					"curveTopRight" : 1,
					"curveBottomLeft" : 0,
					"curveBottomRight" : 0,
					"width": 450,
					"height": 60,
					"contains" : 
						{
							"text":  [
                              {
									"type" : 3,
									"x": 0,
									"y": 0,
									"zoomStart": 2,
									"zoomEnd": 100000,
									"text": "working"
                              }
                            ]
						}						
				},
				{
					"type" : 1,
					"x": 0,
					"y": 60,
					"zoomStart": 2.0,
					"zoomEnd": 10000,
					"radius": 20,
					"curveTopLeft" : 0,
					"curveTopRight" : 0,
					"curveBottomLeft" : 1,
					"curveBottomRight" : 1,
					"width": 450,
					"height": 300,
					"contains" : 
						{
							"node": [
								{	
									"id" : 3,
									"x": 20,
									"y": 20,
									"color": "white",
									"fillcolor" :"#CC9900",
									"rectangle":  [
										{
											"type" : 1,
											"x": 0,
											"y": 0,
											"zoomStart": 0.4,
											"zoomEnd": 2.0,
											"radius": 20,
											"curveTopLeft" : 1,
											"curveTopRight" : 1,
											"curveBottomLeft" : 1,
											"curveBottomRight" : 1,
											"width": 450,
											"height": 360,
											"contains" : 
												{
													"text":  [
													  {
															"type" : 3,
															"x": 0,
															"y": 0,
															"zoomStart": 0.4,
															"zoomEnd": 2,
															"text": "washing"
													  }
													]
												}						
										},
										{
											"type" : 1,
											"x": 0,
											"y": 0,
											"zoomStart": 2.0,
											"zoomEnd": 100000,
											"radius": 20,
											"curveTopLeft" : 1,
											"curveTopRight" : 1,
											"curveBottomLeft" : 0,
											"curveBottomRight" : 0,
											"width": 450,
											"height": 60,
											"contains" : 
												{
													"text":  [
													  {
															"type" : 3,
															"x": 0,
															"y": 0,
															"zoomStart": 2,
															"zoomEnd": 10000,
															"text": "washing"
													  }
													]
												}						
										},
										{
											"type" : 1,
											"x": 0,
											"y": 60,
											"zoomStart": 2.0,
											"zoomEnd": 10000,
											"radius": 20,
											"curveTopLeft" : 0,
											"curveTopRight" : 0,
											"curveBottomLeft" : 1,
											"curveBottomRight" : 1,
											"width": 450,
											"height": 300,
											"contains" : 
												{
													"node": [
													]
												}						
										}
									]	
								},
								{	
									"id" : 4,
									"x": 300,
									"y": 35,
									"color": "white",
									"fillcolor" :"#CC9900",
									"rectangle":  [
										{
											"type" : 1,
											"x": 0,
											"y": 0,
											"zoomStart": 0.4,
											"zoomEnd": 2.0,
											"radius": 20,
											"curveTopLeft" : 1,
											"curveTopRight" : 1,
											"curveBottomLeft" : 1,
											"curveBottomRight" : 1,
											"width": 450,
											"height": 360,
											"contains" : 
												{
													"text":  [
													  {
															"type" : 3,
															"x": 0,
															"y": 0,
															"zoomStart": 0.4,
															"zoomEnd": 2,
															"text": "centrifuging"
													  }
													]
												}						
										},
										{
											"type" : 1,
											"x": 0,
											"y": 0,
											"zoomStart": 2.0,
											"zoomEnd": 100000,
											"radius": 20,
											"curveTopLeft" : 1,
											"curveTopRight" : 1,
											"curveBottomLeft" : 0,
											"curveBottomRight" : 0,
											"width": 450,
											"height": 60,
											"contains" : 
												{
													"text":  [
													  {
															"type" : 3,
															"x": 0,
															"y": 0,
															"zoomStart": 2,
															"zoomEnd": 10000,
															"text": "centrifuging"
													  }
													]
												}						
										},
										{
											"type" : 1,
											"x": 0,
											"y": 60,
											"zoomStart": 2.0,
											"zoomEnd": 10000,
											"radius": 20,
											"curveTopLeft" : 0,
											"curveTopRight" : 0,
											"curveBottomLeft" : 1,
											"curveBottomRight" : 1,
											"width": 450,
											"height": 300,
											"contains" : 
												{
													"node": [
													]
												}						
										}
									]	
								},
								{	
									"id" : 5,
									"x": 80,
									"y": 200,
									"color": "white",
									"fillcolor" :"#CC9900",
									"rectangle":  [
										{
											"type" : 1,
											"x": 0,
											"y": 0,
											"zoomStart": 0.4,
											"zoomEnd": 2.0,
											"radius": 20,
											"curveTopLeft" : 1,
											"curveTopRight" : 1,
											"curveBottomLeft" : 1,
											"curveBottomRight" : 1,
											"width": 450,
											"height": 360,
											"contains" : 
												{
													"text":  [
													  {
															"type" : 3,
															"x": 0,
															"y": 0,
															"zoomStart": 0.4,
															"zoomEnd": 2,
															"text": "rinsing"
													  }
													]
												}						
										},
										{
											"type" : 1,
											"x": 0,
											"y": 0,
											"zoomStart": 2.0,
											"zoomEnd": 100000,
											"radius": 20,
											"curveTopLeft" : 1,
											"curveTopRight" : 1,
											"curveBottomLeft" : 0,
											"curveBottomRight" : 0,
											"width": 450,
											"height": 60,
											"contains" : 
												{
													"text":  [
													  {
															"type" : 3,
															"x": 0,
															"y": 0,
															"zoomStart": 2,
															"zoomEnd": 10000,
															"text": "rinsing"
													  }
													]
												}						
										},
										{
											"type" : 1,
											"x": 0,
											"y": 60,
											"zoomStart": 2.0,
											"zoomEnd": 10000,
											"radius": 20,
											"curveTopLeft" : 0,
											"curveTopRight" : 0,
											"curveBottomLeft" : 1,
											"curveBottomRight" : 1,
											"width": 450,
											"height": 300,
											"contains" : 
												{
													"node": [
													]
												}						
										}
									]	
								}
							]
						}						
				}
			]	
		},
		{	
            "id" : 6,
			"x": 9300,
			"y": 4550,
			"color": "white",
			"fillcolor" :"#7094B8",
			"rectangle":  [
				{
					"type" : 1,
					"x": 0,
					"y": 0,
					"zoomStart": 0,
					"zoomEnd": 2.0,
					"radius": 20,
					"curveTopLeft" : 1,
					"curveTopRight" : 1,
					"curveBottomLeft" : 1,
					"curveBottomRight" : 1,
					"width": 450,
					"height": 360,
					"contains" : 
						{
							"text":  [
                              {
									"type" : 3,
									"x": 0,
									"y": 0,
									"zoomStart": 0,
									"zoomEnd": 2,
									"text": "turning off"
                              }
                            ]
						}						
				},
				{
					"type" : 1,
					"x": 0,
					"y": 0,
					"zoomStart": 2.0,
					"zoomEnd": 100000,
					"radius": 20,
					"curveTopLeft" : 1,
					"curveTopRight" : 1,
					"curveBottomLeft" : 0,
					"curveBottomRight" : 0,
					"width": 450,
					"height": 60,
					"contains" : 
						{
							"text":  [
                              {
									"type" : 3,
									"x": 0,
									"y": 0,
									"zoomStart": 2,
									"zoomEnd": 100000,
									"text": "turning off"
                              }
                            ]
						}						
				},
				{
					"type" : 1,
					"x": 0,
					"y": 60,
					"zoomStart": 2,
					"zoomEnd": 10000,
					"radius": 20,
					"curveTopLeft" : 0,
					"curveTopRight" : 0,
					"curveBottomLeft" : 1,
					"curveBottomRight" : 1,
					"width": 450,
					"height": 300,
					"contains" : 
						{
						}
                }
              ]
		},			
		{	
            "id" : 7,
			"x": 9400,
			"y": 5200,
			"color": "black",
			"fillcolor": "transparent",
			"alpha": 120,
			"ellipse":  [
				{
					"type" : 2,
					"x": 0,
					"y": 0,
					"zoomStart": 0,
					"zoomEnd": 1000,
					"width": 40,
					"height": 40,
					"contains" : 
						{
							"ellipse":  [
								{
									"type" : 2,
									"x": 5,
									"y": 5,
									"zoomStart": 0,
									"zoomEnd": 1000,
									"width": 30,
									"height": 30,
									"color": "black",
									"contains" : 
										{
												
										}	
								}
							]		
						}	
				}
			]	
		}
	],
	"edge":[
		{
			"nodeId1" : 1,
			"nodeId2" : 3,
			"direction": 1,
			"message1": "",
			"message2": "",
			"posmsg1": 0.2,
			"posmsg2": 0.9
		},
		{
			"nodeId1" : 3,
			"nodeId2" : 5,
			"direction": 1,
			"message1": "finishedWashing",
			"message2": "",
			"posmsg1": 0.1,
			"posmsg2": 0.5
		},
		{
			"nodeId1" : 5,
			"nodeId2" : 4,
			"direction": 1,
			"message1": "finishedRinsing",
			"message2": "",
			"posmsg1": 0.3,
			"posmsg2": 0.3
		},
		{
			"nodeId1" : 4,
			"nodeId2" : 7,
			"direction": 1,
			"message1": "finishedCentrifuging",
			"message2": "",
			"posmsg1": 0.4,
			"posmsg2": 0.4
		},
		{
			"nodeId1" : 2,
			"nodeId2" : 6,
			"direction": 1,
			"message1": "pressOff",
			"message2": "",
			"posmsg1": 0.4,
			"posmsg2": 0.4
		},
		{
			"nodeId1" : 6,
			"nodeId2" : 7,
			"direction": 1,
			"message1": "",
			"message2": "",
			"posmsg1": 0.4,
			"posmsg2": 0.4
		}
	]
}