{
	"node":[
		{
			"id" : 1,
			"x": 8500,
			"y": 4600,
			"color": "black",
			"fillcolor": "transparent",
			"image":  [
					{
						"type" : 5,
						"x": 0,
						"y": 0,
						"zoomStart": 0,
						"zoomEnd": 10000,
						"width": 200,
						"height": 250,
						"image": ":/images/imageUser.gif",
						"contains" : 
							{
								"text":  [
								  {
										"type" : 3,
										"x": 0,
										"y": 0,
										"zoomStart": 0,
										"zoomEnd": 10000,
										"text": "User",
										"align": "bottom"
								  }
								]
							}						
					}
				]
		},
		{
			"id" : 2,
			"x": 8500,
			"y": 5000,
			"color": "black",
			"fillcolor": "transparent",
			"image":  [
					{
						"type" : 5,
						"x": 0,
						"y": 0,
						"zoomStart": 0,
						"zoomEnd": 10000,
						"width": 200,
						"height": 250,
						"image": ":/images/imageUser.gif",
						"contains" : 
							{
								"text":  [
								  {
										"type" : 3,
										"x": 0,
										"y": 0,
										"zoomStart": 0,
										"zoomEnd": 10000,
										"text": "Maintenance",
										"align": "bottom"
								  }
								]
							}						
					}
				]
		},
		{	
            "id" : 3,
			"x": 8750,
			"y": 4550,
			"color": "black",
			"fillcolor": "#EDEEEE",
			"rows": 8,
			"columns" : 4,
			"rectangle": [
				{
					"type" : 1,
					"x": 0,
					"y": 0,
					"zoomStart": 0,
					"zoomEnd": 10000,
					"width": 1000,
					"height": 700,
					"contains" : 
						{
							"text":  [
								{
											"type" : 3,
											"x": 0,
											"y": 0,
											"zoomStart": 0,
											"zoomEnd": 4.2,
											"text": "ATM",
											"align": "right"
								}
							],
							"node":[
								{	
									"id" : 4,
									"x": 150,
									"y": 350,
									"color": "black",
									"fillcolor" :"#66C2E0",
									"sameLineText": "true",
									"ellipse":  [
										{
											"type" : 2,
											"x": 0,
											"y": 0,
											"zoomStart": 0,
											"zoomEnd": 4.2,
											"width": 250,
											"height": 170,
											"contains" : 
												{
													"text":  [
													  {
															"type" : 3,
															"x": 0,
															"y": 0,
															"zoomStart": 0,
															"zoomEnd": 4.2,
															"text": "Refill Machine"
													  }
													]
												}	
										},
										{
											"type" : 2,
											"x": 0,
											"y": 0,
											"zoomStart": 4.2,
											"zoomEnd": 10000,
											"width": 250,
											"height": 170,
											"contains" : 
												{
													"node":[
														{
															"id" : 14,
															"x": 20,
															"y": 37,
															"color": "black",
															"fillcolor": "transparent",
															"image":  [
																	{
																		"type" : 5,
																		"x": 0,
																		"y": 0,
																		"zoomStart": 0.4,
																		"zoomEnd": 10000,
																		"width": 200,
																		"height": 250,
																		"image": ":/images/imageUser.gif",
																		"contains" : 
																			{
																				"text":  [
																				  {
																						"type" : 3,
																						"x": 0,
																						"y": 0,
																						"zoomStart": 0.4,
																						"zoomEnd": 10000,
																						"text": "Maintenance",
																						"align": "bottom"
																				  }
																				]
																			}						
																	}
																]
														},
														{
															"id" : 15,
															"x": 70,
															"y": 48,
															"color": "black",
															"fillcolor" :"#FFFFC6",
															"rectangle":  [
																{
																	"type" : 1,
																	"x": 0,
																	"y": 0,
																	"zoomStart": 0.4,
																	"zoomEnd": 10000,
																	"width": 180,
																	"height": 100,
																	"contains" : 
																		{
																			"text":  [
																				  {
																						"type" : 3,
																						"x": 0,
																						"y": 0,
																						"zoomStart": 0.4,
																						"zoomEnd": 10000,
																						"text": ":ATMMain"
																				  }
																				]
																		}						
																}
															]
														},
														{
															"id" : 16,
															"x": 140,
															"y": 48,
															"color": "black",
															"fillcolor" :"#FFFFC6",
															"rectangle":  [
																{
																	"type" : 1,
																	"x": 0,
																	"y": 0,
																	"zoomStart": 0.4,
																	"zoomEnd": 10000,
																	"width": 180,
																	"height": 100,
																	"contains" : 
																		{
																			"text":  [
																				  {
																						"type" : 3,
																						"x": 0,
																						"y": 0,
																						"zoomStart": 0.4,
																						"zoomEnd": 10000,
																						"text": ":WLogin"
																				  }
																				]
																		}						
																}
															]
														},
														{
															"id" : 17,
															"x": 210,
															"y": 48,
															"color": "black",
															"fillcolor" :"#FFFFC6",
															"rectangle":  [
																{
																	"type" : 1,
																	"x": 0,
																	"y": 0,
																	"zoomStart": 0.4,
																	"zoomEnd": 10000,
																	"width": 180,
																	"height": 100,
																	"contains" : 
																		{
																			"text":  [
																				  {
																						"type" : 3,
																						"x": 0,
																						"y": 0,
																						"zoomStart": 0.4,
																						"zoomEnd": 10000,
																						"text": ":WValidate"
																				  }
																				]
																		}						
																}
															]
														},
														{
															"id" : 18,
															"x": 70,
															"y": 130,
															"color": "black",
															"fillcolor" :"#FFFFC6",
															"rectangle":  [
																{
																	"type" : 1,
																	"x": 0,
																	"y": 0,
																	"zoomStart": 0.4,
																	"zoomEnd": 10000,
																	"width": 180,
																	"height": 100,
																	"contains" : 
																		{
																			"text":  [
																				  {
																						"type" : 3,
																						"x": 0,
																						"y": 0,
																						"zoomStart": 0.4,
																						"zoomEnd": 10000,
																						"text": ":ATMAdmin"
																				  }
																				]
																		}						
																}
															]
														},
														{
															"id" : 19,
															"x": 140,
															"y": 130,
															"color": "black",
															"fillcolor" :"#FFFFC6",
															"rectangle":  [
																{
																	"type" : 1,
																	"x": 0,
																	"y": 0,
																	"zoomStart": 0.4,
																	"zoomEnd": 10000,
																	"width": 180,
																	"height": 100,
																	"contains" : 
																		{
																			"text":  [
																				  {
																						"type" : 3,
																						"x": 0,
																						"y": 0,
																						"zoomStart": 0.4,
																						"zoomEnd": 10000,
																						"text": ":ATMDB"
																				  }
																				]
																		}						
																}
															]
														}
													]
												}						
										}
									]
								},
								{	
									"id" : 5,
									"x": 550,
									"y": 350,
									"color": "black",
									"fillcolor" :"#66C2E0",
									"sameLineText": "true",
									"ellipse":  [
										{
											"type" : 2,
											"x": 0,
											"y": 0,
											"zoomStart": 0,
											"zoomEnd": 4.2,
											"width": 250,
											"height": 170,
											"contains" : 
												{
													"text":  [
													  {
															"type" : 3,
															"x": 0,
															"y": 0,
															"zoomStart": 0,
															"zoomEnd": 4.2,
															"text": "Upgrade Firmware"
													  }
													]
												}	
										},
										{
											"type" : 2,
											"x": 0,
											"y": 0,
											"zoomStart": 4.2,
											"zoomEnd": 10000,
											"width": 250,
											"height": 170,
											"contains" : 
												{
													"node":[
														{
															"id" : 20,
															"x": 20,
															"y": 37,
															"color": "black",
															"fillcolor": "transparent",
															"image":  [
																	{
																		"type" : 5,
																		"x": 0,
																		"y": 0,
																		"zoomStart": 0.4,
																		"zoomEnd": 10000,
																		"width": 200,
																		"height": 250,
																		"image": ":/images/imageUser.gif",
																		"contains" : 
																			{
																				"text":  [
																				  {
																						"type" : 3,
																						"x": 0,
																						"y": 0,
																						"zoomStart": 0.4,
																						"zoomEnd": 10000,
																						"text": "Maintenance",
																						"align": "bottom"
																				  }
																				]
																			}						
																	}
																]
														},
														{
															"id" : 21,
															"x": 70,
															"y": 48,
															"color": "black",
															"fillcolor" :"#FFFFC6",
															"rectangle":  [
																{
																	"type" : 1,
																	"x": 0,
																	"y": 0,
																	"zoomStart": 0.4,
																	"zoomEnd": 10000,
																	"width": 180,
																	"height": 100,
																	"contains" : 
																		{
																			"text":  [
																				  {
																						"type" : 3,
																						"x": 0,
																						"y": 0,
																						"zoomStart": 0.4,
																						"zoomEnd": 10000,
																						"text": ":ATMMain"
																				  }
																				]
																		}						
																}
															]
														},
														{
															"id" : 22,
															"x": 140,
															"y": 48,
															"color": "black",
															"fillcolor" :"#FFFFC6",
															"rectangle":  [
																{
																	"type" : 1,
																	"x": 0,
																	"y": 0,
																	"zoomStart": 0.4,
																	"zoomEnd": 10000,
																	"width": 180,
																	"height": 100,
																	"contains" : 
																		{
																			"text":  [
																				  {
																						"type" : 3,
																						"x": 0,
																						"y": 0,
																						"zoomStart": 0.4,
																						"zoomEnd": 10000,
																						"text": ":WLogin"
																				  }
																				]
																		}						
																}
															]
														},
														{
															"id" : 23,
															"x": 210,
															"y": 48,
															"color": "black",
															"fillcolor" :"#FFFFC6",
															"rectangle":  [
																{
																	"type" : 1,
																	"x": 0,
																	"y": 0,
																	"zoomStart": 0.4,
																	"zoomEnd": 10000,
																	"width": 180,
																	"height": 100,
																	"contains" : 
																		{
																			"text":  [
																				  {
																						"type" : 3,
																						"x": 0,
																						"y": 0,
																						"zoomStart": 0.4,
																						"zoomEnd": 10000,
																						"text": ":WValidate"
																				  }
																				]
																		}						
																}
															]
														},
														{
															"id" : 24,
															"x": 70,
															"y": 130,
															"color": "black",
															"fillcolor" :"#FFFFC6",
															"rectangle":  [
																{
																	"type" : 1,
																	"x": 0,
																	"y": 0,
																	"zoomStart": 0.4,
																	"zoomEnd": 10000,
																	"width": 180,
																	"height": 100,
																	"contains" : 
																		{
																			"text":  [
																				  {
																						"type" : 3,
																						"x": 0,
																						"y": 0,
																						"zoomStart": 0.4,
																						"zoomEnd": 10000,
																						"text": ":ATMAdmin"
																				  }
																				]
																		}						
																}
															]
														},
														{
															"id" : 25,
															"x": 180,
															"y": 130,
															"color": "black",
															"fillcolor" :"#FFFFC6",
															"rectangle":  [
																{
																	"type" : 1,
																	"x": 0,
																	"y": 0,
																	"zoomStart": 0.4,
																	"zoomEnd": 10000,
																	"width": 180,
																	"height": 100,
																	"contains" : 
																		{
																			"text":  [
																				  {
																						"type" : 3,
																						"x": 0,
																						"y": 0,
																						"zoomStart": 0.4,
																						"zoomEnd": 10000,
																						"text": ":BankServer"
																				  }
																				]
																		}						
																}
															]
														}
													]
												}						
										}
									]	
								},
								{	
									"id" : 6,
									"x": 150,
									"y": 500,
									"color": "black",
									"fillcolor" :"#66C2E0",
									"sameLineText": "true",
									"ellipse":  [
										{
											"type" : 2,
											"x": 0,
											"y": 0,
											"zoomStart": 0,
											"zoomEnd": 4.2,
											"width": 250,
											"height": 170,
											"contains" : 
												{
													"text":  [
													  {
															"type" : 3,
															"x": 0,
															"y": 0,
															"zoomStart": 0,
															"zoomEnd": 4.2,
															"text": "Disable ATM"
													  }
													]
												}	
										},
										{
											"type" : 2,
											"x": 0,
											"y": 0,
											"zoomStart": 4.2,
											"zoomEnd": 10000,
											"width": 250,
											"height": 170,
											"contains" : 
												{
													"node":[
														{
															"id" : 26,
															"x": 20,
															"y": 37,
															"color": "black",
															"fillcolor": "transparent",
															"image":  [
																	{
																		"type" : 5,
																		"x": 0,
																		"y": 0,
																		"zoomStart": 0.4,
																		"zoomEnd": 10000,
																		"width": 200,
																		"height": 250,
																		"image": ":/images/imageUser.gif",
																		"contains" : 
																			{
																				"text":  [
																				  {
																						"type" : 3,
																						"x": 0,
																						"y": 0,
																						"zoomStart": 0.4,
																						"zoomEnd": 10000,
																						"text": "Maintenance",
																						"align": "bottom"
																				  }
																				]
																			}						
																	}
																]
														},
														{
															"id" : 27,
															"x": 70,
															"y": 48,
															"color": "black",
															"fillcolor" :"#FFFFC6",
															"rectangle":  [
																{
																	"type" : 1,
																	"x": 0,
																	"y": 0,
																	"zoomStart": 0.4,
																	"zoomEnd": 10000,
																	"width": 180,
																	"height": 100,
																	"contains" : 
																		{
																			"text":  [
																				  {
																						"type" : 3,
																						"x": 0,
																						"y": 0,
																						"zoomStart": 0.4,
																						"zoomEnd": 10000,
																						"text": ":ATMMain"
																				  }
																				]
																		}						
																}
															]
														},
														{
															"id" : 28,
															"x": 140,
															"y": 48,
															"color": "black",
															"fillcolor" :"#FFFFC6",
															"rectangle":  [
																{
																	"type" : 1,
																	"x": 0,
																	"y": 0,
																	"zoomStart": 0.4,
																	"zoomEnd": 10000,
																	"width": 180,
																	"height": 100,
																	"contains" : 
																		{
																			"text":  [
																				  {
																						"type" : 3,
																						"x": 0,
																						"y": 0,
																						"zoomStart": 0.4,
																						"zoomEnd": 10000,
																						"text": ":WLogin"
																				  }
																				]
																		}						
																}
															]
														},
														{
															"id" : 29,
															"x": 210,
															"y": 48,
															"color": "black",
															"fillcolor" :"#FFFFC6",
															"rectangle":  [
																{
																	"type" : 1,
																	"x": 0,
																	"y": 0,
																	"zoomStart": 0.4,
																	"zoomEnd": 10000,
																	"width": 180,
																	"height": 100,
																	"contains" : 
																		{
																			"text":  [
																				  {
																						"type" : 3,
																						"x": 0,
																						"y": 0,
																						"zoomStart": 0.4,
																						"zoomEnd": 10000,
																						"text": ":WValidate"
																				  }
																				]
																		}						
																}
															]
														},
														{
															"id" : 30,
															"x": 70,
															"y": 130,
															"color": "black",
															"fillcolor" :"#FFFFC6",
															"rectangle":  [
																{
																	"type" : 1,
																	"x": 0,
																	"y": 0,
																	"zoomStart": 0.4,
																	"zoomEnd": 10000,
																	"width": 180,
																	"height": 100,
																	"contains" : 
																		{
																			"text":  [
																				  {
																						"type" : 3,
																						"x": 0,
																						"y": 0,
																						"zoomStart": 0.4,
																						"zoomEnd": 10000,
																						"text": ":ATMAdmin"
																				  }
																				]
																		}						
																}
															]
														},
														{
															"id" : 31,
															"x": 180,
															"y": 130,
															"color": "black",
															"fillcolor" :"#FFFFC6",
															"rectangle":  [
																{
																	"type" : 1,
																	"x": 0,
																	"y": 0,
																	"zoomStart": 0.4,
																	"zoomEnd": 10000,
																	"width": 180,
																	"height": 100,
																	"contains" : 
																		{
																			"text":  [
																				  {
																						"type" : 3,
																						"x": 0,
																						"y": 0,
																						"zoomStart": 0.4,
																						"zoomEnd": 10000,
																						"text": ":BankServer"
																				  }
																				]
																		}						
																}
															]
														}
													]
												}						
										}
									]	
								},
								{	
									"id" : 7,
									"x": 350,
									"y": 580,
									"color": "black",
									"fillcolor" :"#66C2E0",
									"sameLineText": "true",
									"ellipse":  [
										{
											"type" : 2,
											"x": 0,
											"y": 0,
											"zoomStart": 0,
											"zoomEnd": 4.2,
											"width": 250,
											"height": 170,
											"contains" : 
												{
													"text":  [
													  {
															"type" : 3,
															"x": 0,
															"y": 0,
															"zoomStart": 0,
															"zoomEnd": 4.2,
															"text": "Enable ATM"
													  }
													]
												}	
										},
										{
											"type" : 2,
											"x": 0,
											"y": 0,
											"zoomStart": 4.2,
											"zoomEnd": 10000,
											"width": 250,
											"height": 170,
											"contains" : 
												{
													"node":[
														{
															"id" : 32,
															"x": 20,
															"y": 37,
															"color": "black",
															"fillcolor": "transparent",
															"image":  [
																	{
																		"type" : 5,
																		"x": 0,
																		"y": 0,
																		"zoomStart": 0.4,
																		"zoomEnd": 10000,
																		"width": 200,
																		"height": 250,
																		"image": ":/images/imageUser.gif",
																		"contains" : 
																			{
																				"text":  [
																				  {
																						"type" : 3,
																						"x": 0,
																						"y": 0,
																						"zoomStart": 0.4,
																						"zoomEnd": 10000,
																						"text": "Maintenance",
																						"align": "bottom"
																				  }
																				]
																			}						
																	}
																]
														},
														{
															"id" : 33,
															"x": 70,
															"y": 48,
															"color": "black",
															"fillcolor" :"#FFFFC6",
															"rectangle":  [
																{
																	"type" : 1,
																	"x": 0,
																	"y": 0,
																	"zoomStart": 0.4,
																	"zoomEnd": 10000,
																	"width": 180,
																	"height": 100,
																	"contains" : 
																		{
																			"text":  [
																				  {
																						"type" : 3,
																						"x": 0,
																						"y": 0,
																						"zoomStart": 0.4,
																						"zoomEnd": 10000,
																						"text": ":ATMMain"
																				  }
																				]
																		}						
																}
															]
														},
														{
															"id" : 34,
															"x": 140,
															"y": 48,
															"color": "black",
															"fillcolor" :"#FFFFC6",
															"rectangle":  [
																{
																	"type" : 1,
																	"x": 0,
																	"y": 0,
																	"zoomStart": 0.4,
																	"zoomEnd": 10000,
																	"width": 180,
																	"height": 100,
																	"contains" : 
																		{
																			"text":  [
																				  {
																						"type" : 3,
																						"x": 0,
																						"y": 0,
																						"zoomStart": 0.4,
																						"zoomEnd": 10000,
																						"text": ":WLogin"
																				  }
																				]
																		}						
																}
															]
														},
														{
															"id" : 35,
															"x": 210,
															"y": 48,
															"color": "black",
															"fillcolor" :"#FFFFC6",
															"rectangle":  [
																{
																	"type" : 1,
																	"x": 0,
																	"y": 0,
																	"zoomStart": 0.4,
																	"zoomEnd": 10000,
																	"width": 180,
																	"height": 100,
																	"contains" : 
																		{
																			"text":  [
																				  {
																						"type" : 3,
																						"x": 0,
																						"y": 0,
																						"zoomStart": 0.4,
																						"zoomEnd": 10000,
																						"text": ":WValidate"
																				  }
																				]
																		}						
																}
															]
														},
														{
															"id" : 36,
															"x": 70,
															"y": 130,
															"color": "black",
															"fillcolor" :"#FFFFC6",
															"rectangle":  [
																{
																	"type" : 1,
																	"x": 0,
																	"y": 0,
																	"zoomStart": 0.4,
																	"zoomEnd": 10000,
																	"width": 180,
																	"height": 100,
																	"contains" : 
																		{
																			"text":  [
																				  {
																						"type" : 3,
																						"x": 0,
																						"y": 0,
																						"zoomStart": 0.4,
																						"zoomEnd": 10000,
																						"text": ":ATMAdmin"
																				  }
																				]
																		}						
																}
															]
														},
														{
															"id" : 37,
															"x": 180,
															"y": 130,
															"color": "black",
															"fillcolor" :"#FFFFC6",
															"rectangle":  [
																{
																	"type" : 1,
																	"x": 0,
																	"y": 0,
																	"zoomStart": 0.4,
																	"zoomEnd": 10000,
																	"width": 180,
																	"height": 100,
																	"contains" : 
																		{
																			"text":  [
																				  {
																						"type" : 3,
																						"x": 0,
																						"y": 0,
																						"zoomStart": 0.4,
																						"zoomEnd": 10000,
																						"text": ":BankServer"
																				  }
																				]
																		}						
																}
															]
														}
													]
												}						
										}
									]	
								},
								{	
									"id" : 8,
									"x": 800,
									"y": 475,
									"color": "black",
									"fillcolor" :"#66C2E0",
									"sameLineText": "true",
									"ellipse":  [
										{
											"type" : 2,
											"x": 0,
											"y": 0,
											"zoomStart": 0,
											"zoomEnd": 4.2,
											"width": 250,
											"height": 170,
											"contains" : 
												{
													"text":  [
													  {
															"type" : 3,
															"x": 0,
															"y": 0,
															"zoomStart": 0,
															"zoomEnd": 4.2,
															"text": "Validate Worker"
													  }
													]
												}	
										},
										{
											"type" : 2,
											"x": 0,
											"y": 0,
											"zoomStart": 4.2,
											"zoomEnd": 10000,
											"width": 250,
											"height": 170,
											"contains" : 
												{
													"node":[
														{
															"id" : 38,
															"x": 35,
															"y": 90,
															"color": "black",
															"fillcolor" :"#FFFFC6",
															"rectangle":  [
																{
																	"type" : 1,
																	"x": 0,
																	"y": 0,
																	"zoomStart": 0.4,
																	"zoomEnd": 10000,
																	"width": 180,
																	"height": 100,
																	"contains" : 
																		{
																			"text":  [
																				  {
																						"type" : 3,
																						"x": 0,
																						"y": 0,
																						"zoomStart": 0.4,
																						"zoomEnd": 10000,
																						"text": ":WValidate"
																				  }
																				]
																		}						
																}
															]
														},
														{
															"id" : 39,
															"x": 200,
															"y": 90,
															"color": "black",
															"fillcolor" :"#FFFFC6",
															"rectangle":  [
																{
																	"type" : 1,
																	"x": 0,
																	"y": 0,
																	"zoomStart": 0.4,
																	"zoomEnd": 10000,
																	"width": 180,
																	"height": 100,
																	"contains" : 
																		{
																			"text":  [
																				  {
																						"type" : 3,
																						"x": 0,
																						"y": 0,
																						"zoomStart": 0.4,
																						"zoomEnd": 10000,
																						"text": ":WDB"
																				  }
																				]
																		}						
																}
															]
														}
													]
												}						
										}
									]	
								},
								{	
									"id" : 9,
									"x": 150,
									"y": 10,
									"color": "black",
									"fillcolor" :"#66C2E0",
									"sameLineText": "true",
									"ellipse":  [
										{
											"type" : 2,
											"x": 0,
											"y": 0,
											"zoomStart": 0,
											"zoomEnd": 4.2,
											"width": 250,
											"height": 170,
											"contains" : 
												{
													"text":  [
													  {
															"type" : 3,
															"x": 0,
															"y": 0,
															"zoomStart": 0,
															"zoomEnd": 4.2,
															"text": "Withdraw Money"
													  }
													]
												}	
										},
										{
											"type" : 2,
											"x": 0,
											"y": 0,
											"zoomStart": 4.2,
											"zoomEnd": 10000,
											"width": 250,
											"height": 170,
											"contains" : 
												{
													"node":[
														{
															"id" : 42,
															"x": 20,
															"y": 37,
															"color": "black",
															"fillcolor": "transparent",
															"image":  [
																	{
																		"type" : 5,
																		"x": 0,
																		"y": 0,
																		"zoomStart": 0.4,
																		"zoomEnd": 10000,
																		"width": 200,
																		"height": 250,
																		"image": ":/images/imageUser.gif",
																		"contains" : 
																			{
																				"text":  [
																				  {
																						"type" : 3,
																						"x": 0,
																						"y": 0,
																						"zoomStart": 0.4,
																						"zoomEnd": 10000,
																						"text": "User",
																						"align": "bottom"
																				  }
																				]
																			}						
																	}
																]
														},
														{
															"id" : 43,
															"x": 70,
															"y": 48,
															"color": "black",
															"fillcolor" :"#FFFFC6",
															"rectangle":  [
																{
																	"type" : 1,
																	"x": 0,
																	"y": 0,
																	"zoomStart": 0.4,
																	"zoomEnd": 10000,
																	"width": 180,
																	"height": 100,
																	"contains" : 
																		{
																			"text":  [
																				  {
																						"type" : 3,
																						"x": 0,
																						"y": 0,
																						"zoomStart": 0.4,
																						"zoomEnd": 10000,
																						"text": ":ATMMain"
																				  }
																				]
																		}						
																}
															]
														},
														{
															"id" : 44,
															"x": 140,
															"y": 48,
															"color": "black",
															"fillcolor" :"#FFFFC6",
															"rectangle":  [
																{
																	"type" : 1,
																	"x": 0,
																	"y": 0,
																	"zoomStart": 0.4,
																	"zoomEnd": 10000,
																	"width": 180,
																	"height": 100,
																	"contains" : 
																		{
																			"text":  [
																				  {
																						"type" : 3,
																						"x": 0,
																						"y": 0,
																						"zoomStart": 0.4,
																						"zoomEnd": 10000,
																						"text": ":ULogin"
																				  }
																				]
																		}						
																}
															]
														},
														{
															"id" : 45,
															"x": 210,
															"y": 48,
															"color": "black",
															"fillcolor" :"#FFFFC6",
															"rectangle":  [
																{
																	"type" : 1,
																	"x": 0,
																	"y": 0,
																	"zoomStart": 0.4,
																	"zoomEnd": 10000,
																	"width": 180,
																	"height": 100,
																	"contains" : 
																		{
																			"text":  [
																				  {
																						"type" : 3,
																						"x": 0,
																						"y": 0,
																						"zoomStart": 0.4,
																						"zoomEnd": 10000,
																						"text": ":UValidate"
																				  }
																				]
																		}						
																}
															]
														},
														{
															"id" : 46,
															"x": 40,
															"y": 130,
															"color": "black",
															"fillcolor" :"#FFFFC6",
															"rectangle":  [
																{
																	"type" : 1,
																	"x": 0,
																	"y": 0,
																	"zoomStart": 0.4,
																	"zoomEnd": 10000,
																	"width": 180,
																	"height": 100,
																	"contains" : 
																		{
																			"text":  [
																				  {
																						"type" : 3,
																						"x": 0,
																						"y": 0,
																						"zoomStart": 0.4,
																						"zoomEnd": 10000,
																						"text": ":ATMUser"
																				  }
																				]
																		}						
																}
															]
														},
														{
															"id" : 47,
															"x": 193,
															"y": 130,
															"color": "black",
															"fillcolor" :"#FFFFC6",
															"rectangle":  [
																{
																	"type" : 1,
																	"x": 0,
																	"y": 0,
																	"zoomStart": 0.4,
																	"zoomEnd": 10000,
																	"width": 180,
																	"height": 100,
																	"contains" : 
																		{
																			"text":  [
																				  {
																						"type" : 3,
																						"x": 0,
																						"y": 0,
																						"zoomStart": 0.4,
																						"zoomEnd": 10000,
																						"text": ":BankDB"
																				  }
																				]
																		}						
																}
															]
														}
													]
												}						
										}
									]
								},
								{	
									"id" : 10,
									"x": 550,
									"y": 10,
									"color": "black",
									"fillcolor" :"#66C2E0",
									"sameLineText": "true",
									"ellipse":  [
										{
											"type" : 2,
											"x": 0,
											"y": 0,
											"zoomStart": 0,
											"zoomEnd": 4.2,
											"width": 250,
											"height": 170,
											"contains" : 
												{
													"text":  [
													  {
															"type" : 3,
															"x": 0,
															"y": 0,
															"zoomStart": 0,
															"zoomEnd": 4.2,
															"text": "Transfer Money"
													  }
													]
												}	
										},
										{
											"type" : 2,
											"x": 0,
											"y": 0,
											"zoomStart": 4.2,
											"zoomEnd": 10000,
											"width": 250,
											"height": 170,
											"contains" : 
												{
													"node":[
														{
															"id" : 48,
															"x": 20,
															"y": 37,
															"color": "black",
															"fillcolor": "transparent",
															"image":  [
																	{
																		"type" : 5,
																		"x": 0,
																		"y": 0,
																		"zoomStart": 0.4,
																		"zoomEnd": 10000,
																		"width": 200,
																		"height": 250,
																		"image": ":/images/imageUser.gif",
																		"contains" : 
																			{
																				"text":  [
																				  {
																						"type" : 3,
																						"x": 0,
																						"y": 0,
																						"zoomStart": 0.4,
																						"zoomEnd": 10000,
																						"text": "User",
																						"align": "bottom"
																				  }
																				]
																			}						
																	}
																]
														},
														{
															"id" : 49,
															"x": 70,
															"y": 48,
															"color": "black",
															"fillcolor" :"#FFFFC6",
															"rectangle":  [
																{
																	"type" : 1,
																	"x": 0,
																	"y": 0,
																	"zoomStart": 0.4,
																	"zoomEnd": 10000,
																	"width": 180,
																	"height": 100,
																	"contains" : 
																		{
																			"text":  [
																				  {
																						"type" : 3,
																						"x": 0,
																						"y": 0,
																						"zoomStart": 0.4,
																						"zoomEnd": 10000,
																						"text": ":ATMMain"
																				  }
																				]
																		}						
																}
															]
														},
														{
															"id" : 50,
															"x": 140,
															"y": 48,
															"color": "black",
															"fillcolor" :"#FFFFC6",
															"rectangle":  [
																{
																	"type" : 1,
																	"x": 0,
																	"y": 0,
																	"zoomStart": 0.4,
																	"zoomEnd": 10000,
																	"width": 180,
																	"height": 100,
																	"contains" : 
																		{
																			"text":  [
																				  {
																						"type" : 3,
																						"x": 0,
																						"y": 0,
																						"zoomStart": 0.4,
																						"zoomEnd": 10000,
																						"text": ":ULogin"
																				  }
																				]
																		}						
																}
															]
														},
														{
															"id" : 51,
															"x": 210,
															"y": 48,
															"color": "black",
															"fillcolor" :"#FFFFC6",
															"rectangle":  [
																{
																	"type" : 1,
																	"x": 0,
																	"y": 0,
																	"zoomStart": 0.4,
																	"zoomEnd": 10000,
																	"width": 180,
																	"height": 100,
																	"contains" : 
																		{
																			"text":  [
																				  {
																						"type" : 3,
																						"x": 0,
																						"y": 0,
																						"zoomStart": 0.4,
																						"zoomEnd": 10000,
																						"text": ":UValidate"
																				  }
																				]
																		}						
																}
															]
														},
														{
															"id" : 52,
															"x": 40,
															"y": 130,
															"color": "black",
															"fillcolor" :"#FFFFC6",
															"rectangle":  [
																{
																	"type" : 1,
																	"x": 0,
																	"y": 0,
																	"zoomStart": 0.4,
																	"zoomEnd": 10000,
																	"width": 180,
																	"height": 100,
																	"contains" : 
																		{
																			"text":  [
																				  {
																						"type" : 3,
																						"x": 0,
																						"y": 0,
																						"zoomStart": 0.4,
																						"zoomEnd": 10000,
																						"text": ":ATMUser"
																				  }
																				]
																		}						
																}
															]
														},
														{
															"id" : 53,
															"x": 193,
															"y": 130,
															"color": "black",
															"fillcolor" :"#FFFFC6",
															"rectangle":  [
																{
																	"type" : 1,
																	"x": 0,
																	"y": 0,
																	"zoomStart": 0.4,
																	"zoomEnd": 10000,
																	"width": 180,
																	"height": 100,
																	"contains" : 
																		{
																			"text":  [
																				  {
																						"type" : 3,
																						"x": 0,
																						"y": 0,
																						"zoomStart": 0.4,
																						"zoomEnd": 10000,
																						"text": ":BankDB"
																				  }
																				]
																		}						
																}
															]
														}
													]
												}						
										}
									]	
								},
								{	
									"id" : 11,
									"x": 150,
									"y": 140,
									"color": "black",
									"fillcolor" :"#66C2E0",
									"sameLineText": "true",
									"ellipse":  [
										{
											"type" : 2,
											"x": 0,
											"y": 0,
											"zoomStart": 0,
											"zoomEnd": 4.2,
											"width": 250,
											"height": 170,
											"contains" : 
												{
													"text":  [
													  {
															"type" : 3,
															"x": 0,
															"y": 0,
															"zoomStart": 0,
															"zoomEnd": 4.2,
															"text": "Check Balance"
													  }
													]
												}	
										},
										{
											"type" : 2,
											"x": 0,
											"y": 0,
											"zoomStart": 4.2,
											"zoomEnd": 10000,
											"width": 250,
											"height": 170,
											"contains" : 
												{
													"node":[
														{
															"id" : 54,
															"x": 20,
															"y": 37,
															"color": "black",
															"fillcolor": "transparent",
															"image":  [
																	{
																		"type" : 5,
																		"x": 0,
																		"y": 0,
																		"zoomStart": 0.4,
																		"zoomEnd": 10000,
																		"width": 200,
																		"height": 250,
																		"image": ":/images/imageUser.gif",
																		"contains" : 
																			{
																				"text":  [
																				  {
																						"type" : 3,
																						"x": 0,
																						"y": 0,
																						"zoomStart": 0.4,
																						"zoomEnd": 10000,
																						"text": "User",
																						"align": "bottom"
																				  }
																				]
																			}						
																	}
																]
														},
														{
															"id" : 55,
															"x": 70,
															"y": 48,
															"color": "black",
															"fillcolor" :"#FFFFC6",
															"rectangle":  [
																{
																	"type" : 1,
																	"x": 0,
																	"y": 0,
																	"zoomStart": 0.4,
																	"zoomEnd": 10000,
																	"width": 180,
																	"height": 100,
																	"contains" : 
																		{
																			"text":  [
																				  {
																						"type" : 3,
																						"x": 0,
																						"y": 0,
																						"zoomStart": 0.4,
																						"zoomEnd": 10000,
																						"text": ":ATMMain"
																				  }
																				]
																		}						
																}
															]
														},
														{
															"id" : 56,
															"x": 140,
															"y": 48,
															"color": "black",
															"fillcolor" :"#FFFFC6",
															"rectangle":  [
																{
																	"type" : 1,
																	"x": 0,
																	"y": 0,
																	"zoomStart": 0.4,
																	"zoomEnd": 10000,
																	"width": 180,
																	"height": 100,
																	"contains" : 
																		{
																			"text":  [
																				  {
																						"type" : 3,
																						"x": 0,
																						"y": 0,
																						"zoomStart": 0.4,
																						"zoomEnd": 10000,
																						"text": ":ULogin"
																				  }
																				]
																		}						
																}
															]
														},
														{
															"id" : 57,
															"x": 210,
															"y": 48,
															"color": "black",
															"fillcolor" :"#FFFFC6",
															"rectangle":  [
																{
																	"type" : 1,
																	"x": 0,
																	"y": 0,
																	"zoomStart": 0.4,
																	"zoomEnd": 10000,
																	"width": 180,
																	"height": 100,
																	"contains" : 
																		{
																			"text":  [
																				  {
																						"type" : 3,
																						"x": 0,
																						"y": 0,
																						"zoomStart": 0.4,
																						"zoomEnd": 10000,
																						"text": ":UValidate"
																				  }
																				]
																		}						
																}
															]
														},
														{
															"id" : 58,
															"x": 70,
															"y": 130,
															"color": "black",
															"fillcolor" :"#FFFFC6",
															"rectangle":  [
																{
																	"type" : 1,
																	"x": 0,
																	"y": 0,
																	"zoomStart": 0.4,
																	"zoomEnd": 10000,
																	"width": 180,
																	"height": 100,
																	"contains" : 
																		{
																			"text":  [
																				  {
																						"type" : 3,
																						"x": 0,
																						"y": 0,
																						"zoomStart": 0.4,
																						"zoomEnd": 10000,
																						"text": ":ATMUser"
																				  }
																				]
																		}						
																}
															]
														},
														{
															"id" : 59,
															"x": 160,
															"y": 130,
															"color": "black",
															"fillcolor" :"#FFFFC6",
															"rectangle":  [
																{
																	"type" : 1,
																	"x": 0,
																	"y": 0,
																	"zoomStart": 0.4,
																	"zoomEnd": 10000,
																	"width": 180,
																	"height": 100,
																	"contains" : 
																		{
																			"text":  [
																				  {
																						"type" : 3,
																						"x": 0,
																						"y": 0,
																						"zoomStart": 0.4,
																						"zoomEnd": 10000,
																						"text": ":BankDB"
																				  }
																				]
																		}						
																}
															]
														}
													]
												}						
										}
									]	
								},
								{	
									"id" : 12,
									"x": 350,
									"y": 250,
									"color": "black",
									"fillcolor" :"#66C2E0",
									"sameLineText": "true",
									"ellipse":  [
										{
											"type" : 2,
											"x": 0,
											"y": 0,
											"zoomStart": 0,
											"zoomEnd": 4.2,
											"width": 250,
											"height": 170,
											"contains" : 
												{
													"text":  [
													  {
															"type" : 3,
															"x": 0,
															"y": 0,
															"zoomStart": 0,
															"zoomEnd": 4.2,
															"text": "Change Password"
													  }
													]
												}	
										},
										{
											"type" : 2,
											"x": 0,
											"y": 0,
											"zoomStart": 4.2,
											"zoomEnd": 10000,
											"width": 250,
											"height": 170,
											"contains" : 
												{
													"node":[
														{
															"id" : 60,
															"x": 20,
															"y": 37,
															"color": "black",
															"fillcolor": "transparent",
															"image":  [
																	{
																		"type" : 5,
																		"x": 0,
																		"y": 0,
																		"zoomStart": 0.4,
																		"zoomEnd": 10000,
																		"width": 200,
																		"height": 250,
																		"image": ":/images/imageUser.gif",
																		"contains" : 
																			{
																				"text":  [
																				  {
																						"type" : 3,
																						"x": 0,
																						"y": 0,
																						"zoomStart": 0.4,
																						"zoomEnd": 10000,
																						"text": "User",
																						"align": "bottom"
																				  }
																				]
																			}						
																	}
																]
														},
														{
															"id" : 61,
															"x": 70,
															"y": 48,
															"color": "black",
															"fillcolor" :"#FFFFC6",
															"rectangle":  [
																{
																	"type" : 1,
																	"x": 0,
																	"y": 0,
																	"zoomStart": 0.4,
																	"zoomEnd": 10000,
																	"width": 180,
																	"height": 100,
																	"contains" : 
																		{
																			"text":  [
																				  {
																						"type" : 3,
																						"x": 0,
																						"y": 0,
																						"zoomStart": 0.4,
																						"zoomEnd": 10000,
																						"text": ":ATMMain"
																				  }
																				]
																		}						
																}
															]
														},
														{
															"id" : 62,
															"x": 140,
															"y": 48,
															"color": "black",
															"fillcolor" :"#FFFFC6",
															"rectangle":  [
																{
																	"type" : 1,
																	"x": 0,
																	"y": 0,
																	"zoomStart": 0.4,
																	"zoomEnd": 10000,
																	"width": 180,
																	"height": 100,
																	"contains" : 
																		{
																			"text":  [
																				  {
																						"type" : 3,
																						"x": 0,
																						"y": 0,
																						"zoomStart": 0.4,
																						"zoomEnd": 10000,
																						"text": ":ULogin"
																				  }
																				]
																		}						
																}
															]
														},
														{
															"id" : 63,
															"x": 210,
															"y": 48,
															"color": "black",
															"fillcolor" :"#FFFFC6",
															"rectangle":  [
																{
																	"type" : 1,
																	"x": 0,
																	"y": 0,
																	"zoomStart": 0.4,
																	"zoomEnd": 10000,
																	"width": 180,
																	"height": 100,
																	"contains" : 
																		{
																			"text":  [
																				  {
																						"type" : 3,
																						"x": 0,
																						"y": 0,
																						"zoomStart": 0.4,
																						"zoomEnd": 10000,
																						"text": ":UValidate"
																				  }
																				]
																		}						
																}
															]
														},
														{
															"id" : 64,
															"x": 40,
															"y": 130,
															"color": "black",
															"fillcolor" :"#FFFFC6",
															"rectangle":  [
																{
																	"type" : 1,
																	"x": 0,
																	"y": 0,
																	"zoomStart": 0.4,
																	"zoomEnd": 10000,
																	"width": 180,
																	"height": 100,
																	"contains" : 
																		{
																			"text":  [
																				  {
																						"type" : 3,
																						"x": 0,
																						"y": 0,
																						"zoomStart": 0.4,
																						"zoomEnd": 10000,
																						"text": ":ATMUser"
																				  }
																				]
																		}						
																}
															]
														},
														{
															"id" : 65,
															"x": 130,
															"y": 130,
															"color": "black",
															"fillcolor" :"#FFFFC6",
															"rectangle":  [
																{
																	"type" : 1,
																	"x": 0,
																	"y": 0,
																	"zoomStart": 0.4,
																	"zoomEnd": 10000,
																	"width": 180,
																	"height": 100,
																	"contains" : 
																		{
																			"text":  [
																				  {
																						"type" : 3,
																						"x": 0,
																						"y": 0,
																						"zoomStart": 0.4,
																						"zoomEnd": 10000,
																						"text": ":UDB"
																				  }
																				]
																		}						
																}
															]
														}
													]
												}						
										}
									]	
								},
								{	
									"id" : 13,
									"x": 800,
									"y": 150,
									"color": "black",
									"fillcolor" :"#66C2E0",
									"sameLineText": "true",
									"ellipse":  [
										{
											"type" : 2,
											"x": 0,
											"y": 0,
											"zoomStart": 0,
											"zoomEnd": 4.2,
											"width": 250,
											"height": 170,
											"contains" : 
												{
													"text":  [
													  {
															"type" : 3,
															"x": 0,
															"y": 0,
															"zoomStart": 0,
															"zoomEnd": 4.2,
															"text": "Validate User"
													  }
													]
												}	
										},
										{
											"type" : 2,
											"x": 0,
											"y": 0,
											"zoomStart": 4.2,
											"zoomEnd": 10000,
											"width": 250,
											"height": 170,
											"contains" : 
												{
													"node":[
														{
															"id" : 40,
															"x": 35,
															"y": 90,
															"color": "black",
															"fillcolor" :"#FFFFC6",
															"rectangle":  [
																{
																	"type" : 1,
																	"x": 0,
																	"y": 0,
																	"zoomStart": 0.4,
																	"zoomEnd": 10000,
																	"width": 180,
																	"height": 100,
																	"contains" : 
																		{
																			"text":  [
																				  {
																						"type" : 3,
																						"x": 0,
																						"y": 0,
																						"zoomStart": 0.4,
																						"zoomEnd": 10000,
																						"text": ":UValidate"
																				  }
																				]
																		}						
																}
															]
														},
														{
															"id" : 41,
															"x": 200,
															"y": 90,
															"color": "black",
															"fillcolor" :"#FFFFC6",
															"rectangle":  [
																{
																	"type" : 1,
																	"x": 0,
																	"y": 0,
																	"zoomStart": 0.4,
																	"zoomEnd": 10000,
																	"width": 180,
																	"height": 100,
																	"contains" : 
																		{
																			"text":  [
																				  {
																						"type" : 3,
																						"x": 0,
																						"y": 0,
																						"zoomStart": 0.4,
																						"zoomEnd": 10000,
																						"text": ":UDB"
																				  }
																				]
																		}						
																}
															]
														}
													]
												}						
										}
									]	
								}
							]								
						}
				}
			]		
		}
	],
	"edge":[
		{
			"nodeId1" : 2,
			"nodeId2" : 4,
			"direction": 0,
			"message1": "",
			"message2": "",
			"posmsg1": 0,
			"posmsg2": 0,
			"msgcolor": "black",
			"arrowcolor":"black"
		},
		{
			"nodeId1" : 2,
			"nodeId2" : 5,
			"direction": 0,
			"message1": "",
			"message2": "",
			"posmsg1": 0,
			"posmsg2": 0,
			"msgcolor": "black",
			"arrowcolor":"black"
		},
		{
			"nodeId1" : 2,
			"nodeId2" : 6,
			"direction": 0,
			"message1": "",
			"message2": "",
			"posmsg1": 0,
			"posmsg2": 0,
			"msgcolor": "black",
			"arrowcolor":"black"
		},
		{
			"nodeId1" : 2,
			"nodeId2" : 7,
			"direction": 0,
			"message1": "",
			"message2": "",
			"posmsg1": 0,
			"posmsg2": 0,
			"msgcolor": "black",
			"arrowcolor":"black"
		},
		{
			"nodeId1" : 4,
			"nodeId2" : 8,
			"direction": 5,
			"message1": "<<include>>",
			"message2": "",
			"posmsg1": 0.2,
			"posmsg2": 0,
			"msgcolor": "black",
			"arrowcolor":"black"
		},
		{
			"nodeId1" : 5,
			"nodeId2" : 8,
			"direction": 5,
			"message1": "<<include>>",
			"message2": "",
			"posmsg1": 0.2,
			"posmsg2": 0,
			"msgcolor": "black",
			"arrowcolor":"black"
		},
		{
			"nodeId1" : 6,
			"nodeId2" : 8,
			"direction": 5,
			"message1": "<<include>>",
			"message2": "",
			"posmsg1": 0.2,
			"posmsg2": 0,
			"msgcolor": "black",
			"arrowcolor":"black"
		},
		{
			"nodeId1" : 7,
			"nodeId2" : 8,
			"direction": 5,
			"message1": "<<include>>",
			"message2": "",
			"posmsg1": 0.2,
			"posmsg2": 0,
			"msgcolor": "black",
			"arrowcolor":"black"
		},
		{
			"nodeId1" : 1,
			"nodeId2" : 9,
			"direction": 0,
			"message1": "",
			"message2": "",
			"posmsg1": 0,
			"posmsg2": 0,
			"msgcolor": "black",
			"arrowcolor":"black"
		},
		{
			"nodeId1" : 1,
			"nodeId2" : 10,
			"direction": 0,
			"message1": "",
			"message2": "",
			"posmsg1": 0,
			"posmsg2": 0,
			"msgcolor": "black",
			"arrowcolor":"black"
		},
		{
			"nodeId1" : 1,
			"nodeId2" : 11,
			"direction": 0,
			"message1": "",
			"message2": "",
			"posmsg1": 0,
			"posmsg2": 0,
			"msgcolor": "black",
			"arrowcolor":"black"
		},
		{
			"nodeId1" : 1,
			"nodeId2" : 12,
			"direction": 0,
			"message1": "",
			"message2": "",
			"posmsg1": 0,
			"posmsg2": 0,
			"msgcolor": "black",
			"arrowcolor":"black"
		},
		{
			"nodeId1" : 9,
			"nodeId2" : 13,
			"direction": 5,
			"message1": "<<include>>",
			"message2": "",
			"posmsg1": 0.2,
			"posmsg2": 0,
			"msgcolor": "black",
			"arrowcolor":"black"
		},
		{
			"nodeId1" : 10,
			"nodeId2" : 13,
			"direction": 5,
			"message1": "<<include>>",
			"message2": "",
			"posmsg1": 0.2,
			"posmsg2": 0,
			"msgcolor": "black",
			"arrowcolor":"black"
		},
		{
			"nodeId1" : 11,
			"nodeId2" : 13,
			"direction": 5,
			"message1": "<<include>>",
			"message2": "",
			"posmsg1": 0.2,
			"posmsg2": 0,
			"msgcolor": "black",
			"arrowcolor":"black"
		},
		{
			"nodeId1" : 12,
			"nodeId2" : 13,
			"direction": 5,
			"message1": "<<include>>",
			"message2": "",
			"posmsg1": 0.2,
			"posmsg2": 0,
			"msgcolor": "black",
			"arrowcolor":"black"
		},
		{
			"nodeId1" : 14,
			"nodeId2" : 15,
			"direction": 0,
			"message1": "->\n1: access",
			"message2": "",
			"posmsg1": 0,
			"posmsg2": 0,
			"msgcolor": "black",
			"arrowcolor":"black"
		},
		{
			"nodeId1" : 15,
			"nodeId2" : 16,
			"direction": 0,
			"message1": "->\n1.1: input",
			"message2": "",
			"posmsg1": 0,
			"posmsg2": 0,
			"msgcolor": "black",
			"arrowcolor":"black"
		},
		{
			"nodeId1" : 16,
			"nodeId2" : 17,
			"direction": 0,
			"message1": "",
			"message2": "->\n1.1.1: verify",
			"posmsg1": 0,
			"posmsg2": 0,
			"msgcolor": "black",
			"arrowcolor":"black"
		},
		{
			"nodeId1" : 15,
			"nodeId2" : 18,
			"direction": 0,
			"message1": "",
			"message2": "->\n1.2: updateMoney",
			"posmsg1": 0,
			"posmsg2": 0,
			"msgcolor": "black",
			"arrowcolor":"black"
		},
		{
			"nodeId1" : 18,
			"nodeId2" : 19,
			"direction": 0,
			"message1": "",
			"message2": "->\n1.2.1: commit",
			"posmsg1": 0,
			"posmsg2": 0,
			"msgcolor": "black",
			"arrowcolor":"black"
		},
		{
			"nodeId1" : 20,
			"nodeId2" : 21,
			"direction": 0,
			"message1": "->\n1: access",
			"message2": "",
			"posmsg1": 0,
			"posmsg2": 0,
			"msgcolor": "black",
			"arrowcolor":"black"
		},
		{
			"nodeId1" : 21,
			"nodeId2" : 22,
			"direction": 0,
			"message1": "->\n1.1: input",
			"message2": "",
			"posmsg1": 0,
			"posmsg2": 0,
			"msgcolor": "black",
			"arrowcolor":"black"
		},
		{
			"nodeId1" : 22,
			"nodeId2" : 23,
			"direction": 0,
			"message1": "",
			"message2": "->\n1.1.1: verify",
			"posmsg1": 0,
			"posmsg2": 0,
			"msgcolor": "black",
			"arrowcolor":"black"
		},
		{
			"nodeId1" : 21,
			"nodeId2" : 24,
			"direction": 0,
			"message1": "",
			"message2": "->\n1.2: callUpgrade",
			"posmsg1": 0,
			"posmsg2": 0,
			"msgcolor": "black",
			"arrowcolor":"black"
		},
		{
			"nodeId1" : 24,
			"nodeId2" : 25,
			"direction": 0,
			"message1": "<-\n1.2.1: installFirmware",
			"message2": "",
			"posmsg1": 0,
			"posmsg2": 0,
			"msgcolor": "black",
			"arrowcolor":"black"
		},
		{
			"nodeId1" : 26,
			"nodeId2" : 27,
			"direction": 0,
			"message1": "->\n1: access",
			"message2": "",
			"posmsg1": 0,
			"posmsg2": 0,
			"msgcolor": "black",
			"arrowcolor":"black"
		},
		{
			"nodeId1" : 27,
			"nodeId2" : 28,
			"direction": 0,
			"message1": "->\n1.1: input",
			"message2": "",
			"posmsg1": 0,
			"posmsg2": 0,
			"msgcolor": "black",
			"arrowcolor":"black"
		},
		{
			"nodeId1" : 28,
			"nodeId2" : 29,
			"direction": 0,
			"message1": "",
			"message2": "->\n1.1.1: verify",
			"posmsg1": 0,
			"posmsg2": 0,
			"msgcolor": "black",
			"arrowcolor":"black"
		},
		{
			"nodeId1" : 27,
			"nodeId2" : 30,
			"direction": 0,
			"message1": "",
			"message2": "->\n1.2: callForDisable",
			"posmsg1": 0,
			"posmsg2": 0,
			"msgcolor": "black",
			"arrowcolor":"black"
		},
		{
			"nodeId1" : 30,
			"nodeId2" : 31,
			"direction": 0,
			"message1": "<-\n1.2.1: disableRemotely",
			"message2": "",
			"posmsg1": 0,
			"posmsg2": 0,
			"msgcolor": "black",
			"arrowcolor":"black"
		},
		{
			"nodeId1" : 32,
			"nodeId2" : 33,
			"direction": 0,
			"message1": "->\n1: access",
			"message2": "",
			"posmsg1": 0,
			"posmsg2": 0,
			"msgcolor": "black",
			"arrowcolor":"black"
		},
		{
			"nodeId1" : 33,
			"nodeId2" : 34,
			"direction": 0,
			"message1": "->\n1.1: input",
			"message2": "",
			"posmsg1": 0,
			"posmsg2": 0,
			"msgcolor": "black",
			"arrowcolor":"black"
		},
		{
			"nodeId1" : 34,
			"nodeId2" : 35,
			"direction": 0,
			"message1": "",
			"message2": "->\n1.1.1: verify",
			"posmsg1": 0,
			"posmsg2": 0,
			"msgcolor": "black",
			"arrowcolor":"black"
		},
		{
			"nodeId1" : 33,
			"nodeId2" : 36,
			"direction": 0,
			"message1": "",
			"message2": "->\n1.2: callForEnable",
			"posmsg1": 0,
			"posmsg2": 0,
			"msgcolor": "black",
			"arrowcolor":"black"
		},
		{
			"nodeId1" : 36,
			"nodeId2" : 37,
			"direction": 0,
			"message1": "<-\n1.2.1: enableRemotely",
			"message2": "",
			"posmsg1": 0,
			"posmsg2": 0,
			"msgcolor": "black",
			"arrowcolor":"black"
		},
		{
			"nodeId1" : 38,
			"nodeId2" : 39,
			"direction": 0,
			"message1": "->\n1: loginInformation",
			"message2": "<-\n1.1: loginConfirmation",
			"posmsg1": 0,
			"posmsg2": 0,
			"msgcolor": "black",
			"arrowcolor":"black"
		},
		{
			"nodeId1" : 40,
			"nodeId2" : 41,
			"direction": 0,
			"message1": "->\n1: loginInformation",
			"message2": "<-\n1.1: loginConfirmation",
			"posmsg1": 0,
			"posmsg2": 0,
			"msgcolor": "black",
			"arrowcolor":"black"
		},
		{
			"nodeId1" : 42,
			"nodeId2" : 43,
			"direction": 0,
			"message1": "->\n1: access",
			"message2": "",
			"posmsg1": 0,
			"posmsg2": 0,
			"msgcolor": "black",
			"arrowcolor":"black"
		},
		{
			"nodeId1" : 43,
			"nodeId2" : 44,
			"direction": 0,
			"message1": "->\n1.1: input",
			"message2": "",
			"posmsg1": 0,
			"posmsg2": 0,
			"msgcolor": "black",
			"arrowcolor":"black"
		},
		{
			"nodeId1" : 44,
			"nodeId2" : 45,
			"direction": 0,
			"message1": "",
			"message2": "->\n1.1.1: verify",
			"posmsg1": 0,
			"posmsg2": 0,
			"msgcolor": "black",
			"arrowcolor":"black"
		},
		{
			"nodeId1" : 43,
			"nodeId2" : 46,
			"direction": 0,
			"message1": "",
			"message2": "<-\n1.2: askWithdraw",
			"posmsg1": 0,
			"posmsg2": 0,
			"msgcolor": "black",
			"arrowcolor":"black"
		},
		{
			"nodeId1" : 46,
			"nodeId2" : 47,
			"direction": 0,
			"message1": "->\n1.2.1: verifyAmount",
			"message2": "<-\n1.2.2 confirmAmount",
			"posmsg1": 0,
			"posmsg2": 0,
			"msgcolor": "black",
			"arrowcolor":"black"
		},
		{
			"nodeId1" : 48,
			"nodeId2" : 49,
			"direction": 0,
			"message1": "->\n1: access",
			"message2": "",
			"posmsg1": 0,
			"posmsg2": 0,
			"msgcolor": "black",
			"arrowcolor":"black"
		},
		{
			"nodeId1" : 49,
			"nodeId2" : 50,
			"direction": 0,
			"message1": "->\n1.1: input",
			"message2": "",
			"posmsg1": 0,
			"posmsg2": 0,
			"msgcolor": "black",
			"arrowcolor":"black"
		},
		{
			"nodeId1" : 50,
			"nodeId2" : 51,
			"direction": 0,
			"message1": "",
			"message2": "->\n1.1.1: verify",
			"posmsg1": 0,
			"posmsg2": 0,
			"msgcolor": "black",
			"arrowcolor":"black"
		},
		{
			"nodeId1" : 49,
			"nodeId2" : 52,
			"direction": 0,
			"message1": "",
			"message2": "<-\n1.2: askTransfer",
			"posmsg1": 0,
			"posmsg2": 0,
			"msgcolor": "black",
			"arrowcolor":"black"
		},
		{
			"nodeId1" : 52,
			"nodeId2" : 53,
			"direction": 0,
			"message1": "->\n1.2.1: verifyAmount",
			"message2": "<-\n1.2.2 confirmAmount",
			"posmsg1": 0,
			"posmsg2": 0,
			"msgcolor": "black",
			"arrowcolor":"black"
		},
		{
			"nodeId1" : 52,
			"nodeId2" : 51,
			"direction": 0,
			"message1": "->\n1.2.3: verifyTarget",
			"message2": "",
			"posmsg1": 0.3,
			"posmsg2": 0,
			"msgcolor": "black",
			"arrowcolor":"black"
		},
		{
			"nodeId1" : 51,
			"nodeId2" : 53,
			"direction": 0,
			"message1": "<-\n1.2.4: commitTransfer",
			"message2": "",
			"posmsg1": 0.5,
			"posmsg2": 0,
			"msgcolor": "black",
			"arrowcolor":"black"
		},
		{
			"nodeId1" : 54,
			"nodeId2" : 55,
			"direction": 0,
			"message1": "->\n1: access",
			"message2": "",
			"posmsg1": 0,
			"posmsg2": 0,
			"msgcolor": "black",
			"arrowcolor":"black"
		},
		{
			"nodeId1" : 55,
			"nodeId2" : 56,
			"direction": 0,
			"message1": "->\n1.1: input",
			"message2": "",
			"posmsg1": 0,
			"posmsg2": 0,
			"msgcolor": "black",
			"arrowcolor":"black"
		},
		{
			"nodeId1" : 56,
			"nodeId2" : 57,
			"direction": 0,
			"message1": "",
			"message2": "->\n1.1.1: verify",
			"posmsg1": 0,
			"posmsg2": 0,
			"msgcolor": "black",
			"arrowcolor":"black"
		},
		{
			"nodeId1" : 55,
			"nodeId2" : 58,
			"direction": 0,
			"message1": "",
			"message2": "->\n1.2: askBalance",
			"posmsg1": 0,
			"posmsg2": 0,
			"msgcolor": "black",
			"arrowcolor":"black"
		},
		{
			"nodeId1" : 58,
			"nodeId2" : 59,
			"direction": 0,
			"message1": "",
			"message2": "<-\n1.2.1 returnBalance",
			"posmsg1": 0,
			"posmsg2": 0,
			"msgcolor": "black",
			"arrowcolor":"black"
		},
		{
			"nodeId1" : 60,
			"nodeId2" : 61,
			"direction": 0,
			"message1": "->\n1: access",
			"message2": "",
			"posmsg1": 0,
			"posmsg2": 0,
			"msgcolor": "black",
			"arrowcolor":"black"
		},
		{
			"nodeId1" : 61,
			"nodeId2" : 62,
			"direction": 0,
			"message1": "->\n1.1: input",
			"message2": "",
			"posmsg1": 0,
			"posmsg2": 0,
			"msgcolor": "black",
			"arrowcolor":"black"
		},
		{
			"nodeId1" : 62,
			"nodeId2" : 63,
			"direction": 0,
			"message1": "",
			"message2": "->\n1.1.1: verify",
			"posmsg1": 0,
			"posmsg2": 0,
			"msgcolor": "black",
			"arrowcolor":"black"
		},
		{
			"nodeId1" : 61,
			"nodeId2" : 64,
			"direction": 0,
			"message1": "",
			"message2": "<-\n1.2: newPassword",
			"posmsg1": 0,
			"posmsg2": 0,
			"msgcolor": "black",
			"arrowcolor":"black"
		},
		{
			"nodeId1" : 64,
			"nodeId2" : 65,
			"direction": 0,
			"message1": "",
			"message2": "->\n1.2.1 setPassword",
			"posmsg1": 0,
			"posmsg2": 0,
			"msgcolor": "black",
			"arrowcolor":"black"
		},
		{
			"nodeId1" : 65,
			"nodeId2" : 63,
			"direction": 0,
			"message1": "->\n1.3 checkPW",
			"message2": "<-\n1.3.1 commitPW",
			"posmsg1": 0,
			"posmsg2": 0,
			"msgcolor": "black",
			"arrowcolor":"black"
		}
		
	]
}