{
	"node":[
		{	
            "id" : 1,
			"x": 9100,
			"y": 4800,
			"color": "black",
			"fillcolor": "green",
			"ellipse":  [
				{
					"type" : 2,
					"x": 0,
					"y": 0,
					"zoomStart": 0,
					"zoomEnd": 2,
					"width": 105,
					"height": 105,
					"contains" : 
						{
							
						}	
				},
				{
					"type" : 2,
					"x": 0,
					"y": 0,
					"zoomStart": 2,
					"zoomEnd": 100,
					"width": 105,
					"height": 105,
					"contains" : 
						{
			
						}						
				}
			]	
		}
	]
}