{
	"node":[
		{
			"id" : 1,
			"x": 8800,
			"y": 4600,
			"color": "black",
			"fillcolor": "transparent",
			"image":  [
					{
						"type" : 5,
						"x": 0,
						"y": 0,
						"zoomStart": 0,
						"zoomEnd": 100,
						"width": 200,
						"height": 250,
						"image": ":/images/imageUser.gif",
						"contains" : 
							{
								"text":  [
								  {
										"type" : 3,
										"x": 0,
										"y": 0,
										"zoomStart": 0,
										"zoomEnd": 100,
										"text": "User",
										"align": "bottom"
								  }
								]
							}						
					}
				]
		}
	]
}