{
	"node":[
		{	
            "id" : 1,
			"x": 9100,
			"y": 4800,
			"color": "black",
			"fillcolor": "pink",
			"ellipse":  [
				{
					"type" : 2,
					"x": 0,
					"y": 0,
					"zoomStart": 0,
					"zoomEnd": 7,
					"width": 250,
					"height": 170,
					"contains" : 
						{
							"text":  [
                              {
									"type" : 3,
									"x": 0,
									"y": 0,
									"zoomStart": 0,
									"zoomEnd": 7,
									"text": "Use Case Example"
                              }
                            ]
						}	
				},
				{
					"type" : 2,
					"x": 0,
					"y": 0,
					"zoomStart": 7,
					"zoomEnd": 10000,
					"width": 250,
					"height": 170,
					"contains" : 
						{
							"text":  [
                              {
									"type" : 3,
									"x": 0,
									"y": 0,
									"zoomStart": 7,
									"zoomEnd": 10000,
									"text": "Use Case Example"
                              }
                            ]
						}						
				}
			]	
		}
	]
}