{
	"node":[
		{	
            "id" : 1,
			"x": 9000,
			"y": 4800,
			"color": "white",
			"fillcolor" :"#CC9900",
			"rectangle":  [
				{
					"type" : 1,
					"x": 0,
					"y": 0,
					"zoomStart": 0,
					"zoomEnd": 2.0,
					"width": 390,
					"height": 300,
					"contains" : 
						{
							"text":  [
                              {
									"type" : 3,
									"x": 0,
									"y": 0,
									"zoomStart": 0,
									"zoomEnd": 2.0,
									"text": "Class Name"
                              }
                            ]
						}						
				},
				{
					"type" : 1,
					"x": 0,
					"y": 0,
					"zoomStart": 2.0,
					"zoomEnd": 10000,
					"width": 390,
					"height": 40,
					"contains" : 
						{
							"text":  [
                              {
									"type" : 3,
									"x": 0,
									"y": 0,
									"zoomStart": 2.0,
									"zoomEnd": 10000,
									"text": "Class Name"
                              }
                            ]
						}						
				},
				{
					"type" : 1,
					"x": 0,
					"y": 40,
					"zoomStart": 2.0,
					"zoomEnd": 10000,
					"width": 390,
					"height": 130,
					"contains" : 
						{
							"text":  [
                              {
									"type" : 3,
									"x": 0,
									"y": 0,
									"zoomStart": 2.0,
									"zoomEnd": 10000,
									"text": "+ attributeName1 : attributeType1",
									"align": "center"
                              },
							  {
									"type" : 3,
									"x": 0,
									"y": 0,
									"zoomStart": 2.0,
									"zoomEnd": 10000,
									"text": "+ attributeName2 : attributeType2",
									"align": "center"
							  }
                            ]
						}						
				},
				{
					"type" : 1,
					"x": 0,
					"y": 170,
					"zoomStart": 2.0,
					"zoomEnd": 10000,
					"width": 390,
					"height": 130,
					"contains" : 
						{
							"text":  [
                              {
									"type" : 3,
									"x": 0,
									"y": 0,
									"zoomStart": 2.0,
									"zoomEnd": 10000,
									"text": "+ functionName1 (att1: attType1) : returnType1",
									"align": "center"
                              },
							  {
									"type" : 3,
									"x": 0,
									"y": 0,
									"zoomStart": 2.0,
									"zoomEnd": 10000,
									"text": "+ functionName2 (att2: attType2) : returnType2",
									"align": "center"
							  }
                            ]
						}						
				}
			]	
		}
	]
}